-------------------------------------------------------------------------------
Test set: br.com.springboot.curso_jdev_teste.requests.GreetingsControllerTest
-------------------------------------------------------------------------------
Tests run: 3, Failures: 0, Errors: 0, Skipped: 0, Time elapsed: 3.383 sec
